{
	"ImportPath": "bitbucket.org/krakencode/goupdate",
	"GoVersion": "go1.6",
	"GodepVersion": "v62",
	"Packages": [
		"."
	],
	"Deps": [
		{
			"ImportPath": "github.com/fatih/color",
			"Comment": "v0.1-17-g533cd7f",
			"Rev": "533cd7fd8a85905f67a1753afb4deddc85ea174f"
		},
		{
			"ImportPath": "github.com/kardianos/osext",
			"Rev": "29ae4ffbc9a6fe9fb2bc5029050ce6996ea1d3bc"
		},
		{
			"ImportPath": "github.com/mattn/go-colorable",
			"Rev": "9cbef7c35391cca05f15f8181dc0b18bc9736dbb"
		},
		{
			"ImportPath": "github.com/mattn/go-isatty",
			"Rev": "56b76bdf51f7708750eac80fa38b952bb9f32639"
		},
		{
			"ImportPath": "golang.org/x/net/html",
			"Rev": "961116aeebe66bfb58bb4d51818c70d256acbbb8"
		},
		{
			"ImportPath": "golang.org/x/net/html/atom",
			"Rev": "961116aeebe66bfb58bb4d51818c70d256acbbb8"
		},
		{
			"ImportPath": "golang.org/x/sys/unix",
			"Rev": "50c6bc5e4292a1d4e65c6e9be5f53be28bcbe28e"
		}
	]
}
